Regression Models for Epidemiology - 5 Introduction to Survival Analysis
…
All of the placebo group relapsed, but some of the 6-MP group were censored (which means they were still in remission); indicated by relapse variable (0 = censored, 1 = relapse).

6-MP = 6-Mercaptopurine (Purinethol) is an anti-cancer (“antineoplastic” or “cytotoxic”) chemotherapy drug used currently for Acute lymphoblastic leukemia (ALL). It is classified as an antimetabolite.

5.4.2 Study design

Clinical trial in 1963 for 6-MP treatment vs. placebo for Acute Leukemia in 42 children. Pairs of children matched by remission status at the time of treatment (1 = partial or 2 = complete) and randomized to 6-MP or placebo. Followed until relapse or end of study. All of the placebo group relapsed, but some of the 6-MP group were censored.

Code
library(KMsurv)
data(drug6mp)
drug6mp |> tibble() |> print()

# A tibble: 21 × 5
    pair remstat    t1    t2 relapse
   <int>   <int> <int> <int>   <int>
 1     1       1     1    10       1
 2     2       2    22     7       1
 3     3       2     3    32       0
 4     4       2    12    23       1
 5     5       2     8    22       1
 6     6       1    17     6       1
 7     7       2     2    16       1
 8     8       2    11    34       0
 9     9       2     8    32       0
10    10       2    12    25       0
# ℹ 11 more rows
…
Example: Surv() with drug6mp data

Code
library(survival)
drug6mp.v3 = 
  drug6mp.v2 |> 
  mutate(
    surv2 = Surv(
      time = t2,
      event = (outcome == "relapsed")))

print(drug6mp.v3)

# A tibble: 21 × 7
    pair remstat     t1    t2 relapse outcome   surv2
   <int> <chr>    <int> <int>   <int> <chr>    <Surv>
 1     1 partial      1    10       1 relapsed    10 
 2     2 complete    22     7       1 relapsed     7 
 3     3 complete     3    32       0 censored    32+
 4     4 complete    12    23       1 relapsed    23 
 5     5 complete     8    22       1 relapsed    22 
 6     6 partial     17     6       1 relapsed     6 
 7     7 complete     2    16       1 relapsed    16 
 8     8 complete    11    34       0 censored    34+
 9     9 complete     8    32       0 censored    32+
10    10 complete    12    25       0 censored    25+
# ℹ 11 more rows
…
