Regression Models for Epidemiology - 2 Linear (Gaussian) Models
…
\[
\begin{aligned}
\hat Y &= \hat E[Y|X=x] \\
&= x'\hat\beta \\
&= \hat\beta_0\cdot 1 + \hat\beta_1 x_1 + ... + \hat\beta_p x_p
\end{aligned}
\]

2.7.2 prediction in R

Show R code
X = model.matrix(bw_lm1)
X |> as_tibble() |> print()

# A tibble: 24 × 3
   `(Intercept)` sexmale   age
           <dbl>   <dbl> <dbl>
 1             1       1    40
 2             1       0    40
 3             1       1    38
 4             1       0    36
 5             1       1    40
 6             1       0    40
 7             1       1    35
 8             1       0    38
 9             1       1    36
10             1       0    42
# ℹ 14 more rows
…
