Regression Models for Epidemiology - 3 Logistic Regression
…
4.12 Individual observations

Code

beetles_long = 
  beetles  |> 
  reframe(
    .by = everything(),
    outcome = c(
      rep(1, times = died), 
      rep(0, times = survived))
  )
beetles_long |> tibble() |> print()

# A tibble: 481 × 6
    dose  died     n   pct survived outcome
   <dbl> <int> <int> <dbl>    <int>   <dbl>
 1  1.69     6    59 0.102       53       1
 2  1.69     6    59 0.102       53       1
 3  1.69     6    59 0.102       53       1
 4  1.69     6    59 0.102       53       1
 5  1.69     6    59 0.102       53       1
 6  1.69     6    59 0.102       53       1
 7  1.69     6    59 0.102       53       0
 8  1.69     6    59 0.102       53       0
 9  1.69     6    59 0.102       53       0
10  1.69     6    59 0.102       53       0
# ℹ 471 more rows
…
chd_grouped_data = 
  wcgs |> 
  summarize(
    .by = c(age, dibpat),
    n = n(),
    `p(chd)` = mean(chd69 == "Yes") |> 
      labelled(label = "CHD Event by 1969"),
    `odds(chd)` = `p(chd)`/(1-`p(chd)`),
    `logit(chd)` = log(`odds(chd)`)
  )

chd_grouped_data

# A tibble: 42 × 6
     age dibpat     n `p(chd)`  `odds(chd)` `logit(chd)`
   <dbl> <fct>  <int> <dbl+lbl>       <dbl>        <dbl>
 1    50 Type A    76 0.105          0.118         -2.14
 2    51 Type A    67 0.164          0.196         -1.63
 3    59 Type A    30 0.233          0.304         -1.19
 4    44 Type A   113 0.0796         0.0865        -2.45
 5    47 Type A    72 0.0972         0.108         -2.23
 6    40 Type A   133 0.0677         0.0726        -2.62
 7    41 Type A   108 0.0648         0.0693        -2.67
 8    43 Type A    97 0.0722         0.0778        -2.55
 9    54 Type A    53 0.132          0.152         -1.88
10    48 Type A    80 0.15           0.176         -1.73
# ℹ 32 more rows
…
